<svg width="55" height="44" viewBox="0 0 55 44" fill="none" xmlns="http://www.w3.org/2000/svg">
<path d="M48.75 37.9167H43.3333V14.2187L27.0833 24.375L10.8333 14.2187V37.9167H5.41667V5.41667H8.66667L27.0833 16.9271L45.5 5.41667H48.75V37.9167ZM48.75 0H5.41667C2.41042 0 0 2.41042 0 5.41667V37.9167C0 39.3533 0.570683 40.731 1.5865 41.7468C2.60233 42.7626 3.98008 43.3333 5.41667 43.3333H48.75C50.1866 43.3333 51.5643 42.7626 52.5802 41.7468C53.596 40.731 54.1667 39.3533 54.1667 37.9167V5.41667C54.1667 3.98008 53.596 2.60233 52.5802 1.5865C51.5643 0.570683 50.1866 0 48.75 0Z" fill="white"/>
</svg>
